<svg xmlns="http://www.w3.org/2000/svg" width="102.541" height="95.659" viewBox="0 0 102.541 95.659">
  <g id="Grupo_1506" data-name="Grupo 1506" transform="translate(-213 -239.89)">
    <path id="Caminho_4776" data-name="Caminho 4776" d="M756.231,416.507a12.244,12.244,0,0,0,4.1-5.585l3.207-8.873h-8.69a12.267,12.267,0,0,0-12.268,12.266v3.695" transform="translate(-460.063 -139.663)" fill="none" stroke="#3d6666" stroke-linecap="round" stroke-linejoin="round" stroke-width="4"/>
    <path id="Caminho_4777" data-name="Caminho 4777" d="M535.67,525.7a27.218,27.218,0,0,1,1.76-4.5,15.828,15.828,0,0,1,19.431-7.676l.01,0a15.98,15.98,0,0,0,10.558,0h0a15.974,15.974,0,0,1,8.371-.605,15.813,15.813,0,0,1,11.294,8.741,27.369,27.369,0,0,1,1.536,4.035" transform="translate(-279.632 -236.083)" fill="none" stroke="#3d6666" stroke-linecap="round" stroke-linejoin="round" stroke-width="4"/>
    <path id="Caminho_4778" data-name="Caminho 4778" d="M543.05,756.48a27.7,27.7,0,0,0,3.129,5.635q.758,1.06,1.615,2.044" transform="translate(-286.068 -448.735)" fill="none" stroke="#3d6666" stroke-linecap="round" stroke-linejoin="round" stroke-width="4"/>
    <path id="Caminho_4779" data-name="Caminho 4779" d="M905.61,764.159a27.6,27.6,0,0,0,4.707-7.679" transform="translate(-602.229 -448.735)" fill="none" stroke="#3d6666" stroke-linecap="round" stroke-linejoin="round" stroke-width="4"/>
    <path id="Caminho_4780" data-name="Caminho 4780" d="M221.36,347.542a4.84,4.84,0,0,0-5.049,7.909l12.766,13.6" transform="translate(0 -91.917)" fill="none" stroke="#3d6666" stroke-linecap="round" stroke-linejoin="round" stroke-width="4"/>
    <path id="Caminho_4781" data-name="Caminho 4781" d="M347.11,299.358a4.827,4.827,0,0,1,3.638-2.488,4.921,4.921,0,0,1,.625-.04,4.842,4.842,0,0,1,4.831,4.841l0,18.651" transform="translate(-115.203 -47.909)" fill="none" stroke="#3d6666" stroke-linecap="round" stroke-linejoin="round" stroke-width="4"/>
    <path id="Caminho_4782" data-name="Caminho 4782" d="M259.011,273.445a2.937,2.937,0,0,0-.069-1.088l-5.325-20.909-1.216-4.773a6.35,6.35,0,1,0-11.712,4.637l2.382,4.314L253.5,274.512a2.947,2.947,0,0,0,.694.841" transform="translate(-21.709 0)" fill="none" stroke="#3d6666" stroke-linecap="round" stroke-linejoin="round" stroke-width="4"/>
    <path id="Caminho_4783" data-name="Caminho 4783" d="M320.018,497.133l-1.723-8.211a11.389,11.389,0,0,0-15.356-8.26l-.747.3-.919.363-2.983,1.181-.919.363-.747.3a11.384,11.384,0,0,0-6.7,13.971" transform="translate(-64.891 -207.513)" fill="none" stroke="#3d6666" stroke-linecap="round" stroke-linejoin="round" stroke-width="4"/>
    <line id="Linha_299" data-name="Linha 299" x1="4.675" y1="7.679" transform="translate(235.668 307.745)" fill="none" stroke="#3d6666" stroke-linecap="round" stroke-linejoin="round" stroke-width="4"/>
    <rect id="Retângulo_1338" data-name="Retângulo 1338" width="93.456" height="18.125" rx="9.062" transform="translate(220.085 315.424)" fill="none" stroke="#3d6666" stroke-linecap="round" stroke-linejoin="round" stroke-width="4"/>
    <rect id="Retângulo_1339" data-name="Retângulo 1339" width="93.456" height="18.125" rx="9.062" transform="translate(220.085 289.62)" fill="none" stroke="#3d6666" stroke-linecap="round" stroke-linejoin="round" stroke-width="4"/>
    <line id="Linha_300" data-name="Linha 300" x2="3.242" transform="translate(231.603 298.683)" fill="none" stroke="#3d6666" stroke-linecap="round" stroke-linejoin="round" stroke-width="4"/>
    <line id="Linha_301" data-name="Linha 301" x2="3.242" transform="translate(298.586 298.683)" fill="none" stroke="#3d6666" stroke-linecap="round" stroke-linejoin="round" stroke-width="4"/>
    <line id="Linha_302" data-name="Linha 302" x2="3.242" transform="translate(231.603 324.96)" fill="none" stroke="#3d6666" stroke-linecap="round" stroke-linejoin="round" stroke-width="4"/>
    <line id="Linha_303" data-name="Linha 303" x2="3.242" transform="translate(298.586 324.96)" fill="none" stroke="#3d6666" stroke-linecap="round" stroke-linejoin="round" stroke-width="4"/>
  </g>
</svg>
