<svg xmlns="http://www.w3.org/2000/svg" width="28" height="38" viewBox="0 0 28 38">
  <g id="Grupo_1858" data-name="Grupo 1858" transform="translate(-115 -89)">
    <g id="Menu" transform="translate(115 89)">
      <rect id="Retângulo_5" data-name="Retângulo 5" width="28" height="3.409" rx="1" fill="#161615"/>
      <rect id="Retângulo_6" data-name="Retângulo 6" width="28" height="3.409" rx="1" transform="translate(0 8.295)" fill="#161615"/>
      <rect id="Retângulo_7" data-name="Retângulo 7" width="28" height="3.409" rx="1" transform="translate(0 16.591)" fill="#161615"/>
    </g>
    <text id="Menu-2" data-name="Menu" transform="translate(117 124)" fill="#161615" font-size="10" font-family="SegoeUI-Light, Segoe UI" font-weight="300"><tspan x="0" y="0">Menu</tspan></text>
  </g>
</svg>
