<svg xmlns="http://www.w3.org/2000/svg" width="101" height="100.179" viewBox="0 0 101 100.179">
  <g id="Grupo_1615" data-name="Grupo 1615" transform="translate(2.398 2)">
    <path id="Caminho_4821" data-name="Caminho 4821" d="M24.062,37.873h0A3.563,3.563,0,0,1,20.5,34.311V20.062A3.563,3.563,0,0,1,24.062,16.5h0a3.563,3.563,0,0,1,3.562,3.562V34.311A3.563,3.563,0,0,1,24.062,37.873Z" transform="translate(-6.122 -16.5)" fill="none" stroke="#436b6b" stroke-linecap="round" stroke-linejoin="round" stroke-width="4"/>
    <path id="Caminho_4822" data-name="Caminho 4822" d="M41.062,37.873h0a3.563,3.563,0,0,0,3.562-3.562V20.062A3.563,3.563,0,0,0,41.062,16.5h0A3.563,3.563,0,0,0,37.5,20.062V34.311A3.563,3.563,0,0,0,41.062,37.873Z" transform="translate(37.435 -16.5)" fill="none" stroke="#436b6b" stroke-linecap="round" stroke-linejoin="round" stroke-width="4"/>
    <line id="Linha_343" data-name="Linha 343" x1="53" transform="translate(21.602 14.685)" fill="none" stroke="#436b6b" stroke-linecap="round" stroke-linejoin="round" stroke-width="4"/>
    <path id="Caminho_4823" data-name="Caminho 4823" d="M98.43,20.5h7.124a7.145,7.145,0,0,1,7.124,7.124V95.306a7.145,7.145,0,0,1-7.124,7.124H23.624A7.145,7.145,0,0,1,16.5,95.306V27.624A7.145,7.145,0,0,1,23.624,20.5h7.124" transform="translate(-16.371 -6.251)" fill="none" stroke="#436b6b" stroke-linecap="round" stroke-linejoin="round" stroke-width="4"/>
    <line id="Linha_344" data-name="Linha 344" x2="97" transform="translate(-0.398 28.685)" fill="none" stroke="#436b6b" stroke-linecap="round" stroke-linejoin="round" stroke-width="4"/>
    <path id="Caminho_4824" data-name="Caminho 4824" d="M54.654,33.5a11.1,11.1,0,0,0-5.343,1.425A11.1,11.1,0,0,0,43.968,33.5C37.082,33.5,31.5,36.318,31.5,44.187S37.082,62,43.968,62a11.1,11.1,0,0,0,5.343-1.425A11.1,11.1,0,0,0,54.654,62c6.886,0,12.468-9.942,12.468-17.811S61.54,33.5,54.654,33.5Z" transform="translate(22.062 27.057)" fill="none" stroke="#436b6b" stroke-linecap="round" stroke-linejoin="round" stroke-width="4"/>
    <path id="Caminho_4825" data-name="Caminho 4825" d="M43.624,30.5l-1.047.524A11,11,0,0,0,36.5,40.859v1.753" transform="translate(34.873 19.37)" fill="none" stroke="#436b6b" stroke-linecap="round" stroke-linejoin="round" stroke-width="4"/>
    <path id="Caminho_4826" data-name="Caminho 4826" d="M21,33.843l3.562,3.562L29.905,28.5" transform="translate(-4.841 14.246)" fill="none" stroke="#436b6b" stroke-linecap="round" stroke-linejoin="round" stroke-width="4"/>
    <rect id="Retângulo_1437" data-name="Retângulo 1437" width="19" height="19" transform="translate(9.602 38.685)" fill="none" stroke="#436b6b" stroke-linecap="round" stroke-linejoin="round" stroke-width="4"/>
    <path id="Caminho_4828" data-name="Caminho 4828" d="M26,33.843l3.562,3.562L34.905,28.5" transform="translate(7.97 14.246)" fill="none" stroke="#436b6b" stroke-linecap="round" stroke-linejoin="round" stroke-width="4"/>
    <rect id="Retângulo_1439" data-name="Retângulo 1439" width="19" height="19" transform="translate(28.602 38.685)" fill="none" stroke="#436b6b" stroke-linecap="round" stroke-linejoin="round" stroke-width="4"/>
  </g>
</svg>
