<svg xmlns="http://www.w3.org/2000/svg" width="85.993" height="86.187" viewBox="0 0 85.993 86.187">
  <path id="Caminho_4360" data-name="Caminho 4360" d="M500.526,25.647c-1.317-1.559-3.466-2.338-6.393-2.338-8.031,0-10.128,6.2-10.666,9.321a29.064,29.064,0,0,1,6.179,2.524l1.772-7.145a2.689,2.689,0,0,1,5.214,1.317l-2.286,9.107A29.236,29.236,0,0,1,501.361,47l.966-2.955a2.7,2.7,0,0,1,3.41-1.693,2.666,2.666,0,0,1,1.693,3.386L504.744,53.8a2.76,2.76,0,0,1-.538.914,30.424,30.424,0,0,1,.672,6.314,29.487,29.487,0,0,1-1.021,7.6c3.117-2.8,6.5-7.659,6.5-15.555,0-14.021-6.017-16.279-6.286-16.359a2.739,2.739,0,0,1-1.824-3.01C502.247,33.651,503.051,28.626,500.526,25.647Zm4.324,49a21.8,21.8,0,0,1-4.324,2.335,2.063,2.063,0,0,1-.376.055,29.573,29.573,0,0,1-6.8,7.359c-.028.028-.052.028-.079.055-.617.483-1.262.941-1.907,1.369a2.1,2.1,0,0,1-.083.4,19.548,19.548,0,0,1-2.255,4.217,16.852,16.852,0,0,0,11.31-4.755A16.547,16.547,0,0,0,504.851,74.644Zm-40.266,1.021c.483,3.948,3.976,7.924,8.086,9.373a21.491,21.491,0,0,0,2.659.162,24.056,24.056,0,0,0,13.324-4.028,21.3,21.3,0,0,0-2.5-6.61l-7.279,2.445a3.207,3.207,0,0,1-.859.134,2.685,2.685,0,0,1-.831-5.238l6.017-2.014c-3.117-4.3-6.824-8.031-9.055-9.162a2.665,2.665,0,0,1-1.207-3.6,2.714,2.714,0,0,1,3.6-1.21,23.166,23.166,0,0,1,5.262,4.11l1.721-5.238a2.693,2.693,0,0,1,3.411-1.693,2.666,2.666,0,0,1,1.693,3.386l-2.686,8.055c0,.028-.028.055-.028.083a43.374,43.374,0,0,1,7.255,12.652,24.013,24.013,0,0,0,4.728-24.9,2.608,2.608,0,0,1-.834-1.021c-1.959-4.407-8.379-7.014-12.814-6.369-3.221.459-3.49,2.338-3.573,2.955a2.667,2.667,0,0,1-4.162,1.855c-3.493-2.417-7.093-2.876-10.1-1.29a8.2,8.2,0,0,0-4.459,6.8c-.028,4.807,2.952,7.952,5.773,8.486a2.659,2.659,0,0,1,2.152,2.2,2.7,2.7,0,0,1-1.345,2.793C465.578,70.427,464.261,72.737,464.585,75.665ZM436.808,46.409A20.033,20.033,0,0,0,439.146,66.5a18.772,18.772,0,0,1,6.8-2.631,24.632,24.632,0,0,1-.162-2.848A29.549,29.549,0,0,1,475.33,31.475c.966,0,1.934.055,2.848.134a19.875,19.875,0,0,1,1.717-5.186,22.587,22.587,0,0,0-22.724-4.431c-4.728,1.855-7.71,5.293-8.541,9.59a16.878,16.878,0,0,1,2.335-.214,2.674,2.674,0,1,1,.162,5.345A15.887,15.887,0,0,0,436.808,46.409Zm24.524,40.618a29.233,29.233,0,0,1-8.486-6.876l-9.079,2.283a3.18,3.18,0,0,1-.673.079,2.718,2.718,0,0,1-2.607-2.041,2.675,2.675,0,0,1,1.962-3.252l7.117-1.772a28.947,28.947,0,0,1-2.6-6.31c-3.117.562-9.348,2.631-9.348,10.69,0,2.955.779,5.052,2.362,6.393,2.983,2.5,8.007,1.693,8.031,1.693a2.665,2.665,0,0,1,3.038,1.907c.079.19,2.335,6.231,16.331,6.231,7.924,0,12.759-3.383,15.579-6.528a28.7,28.7,0,0,1-7.628,1.048c-.7,0-1.369-.052-2.041-.107a2.627,2.627,0,0,1-.645.107,2.277,2.277,0,0,1-.7-.107c-.186-.055-.376-.134-.562-.19-.779-.107-1.559-.241-2.31-.4a3.01,3.01,0,0,1-.941.562l-8.059,2.686a3.073,3.073,0,0,1-.859.134,2.686,2.686,0,0,1-.835-5.238Zm.862-20.014a14.223,14.223,0,0,1-5.614-11.71,13.528,13.528,0,0,1,7.331-11.552,14.165,14.165,0,0,1,12.735-.055,9.358,9.358,0,0,1,6.848-4.028,15.181,15.181,0,0,1,2.955-.107,24.16,24.16,0,0,0-26.245,40.294,13.981,13.981,0,0,1-.938-3.572A11.353,11.353,0,0,1,462.195,67.013ZM432.243,79.827a15.73,15.73,0,0,1,2.955-9.669,25.369,25.369,0,0,1-3.279-25.976A21.5,21.5,0,0,1,443.067,33.14c.376-7.252,4.81-13.245,12.114-16.145a27.72,27.72,0,0,1,27.887,5.076,15.282,15.282,0,0,1,11.066-4.135c4.593,0,8.114,1.424,10.5,4.269,2.848,3.386,3.169,7.845,3.09,10.4,2.955,1.935,8,7.2,8,20.469,0,7.79-2.631,13.217-5.748,16.924.969,7.735-1.048,14.614-5.8,19.449-4.165,4.217-9.886,6.421-16.441,6.421a29.8,29.8,0,0,1-3.41-.217c-3.707,3.117-9.135,5.776-16.952,5.776-13.242,0-18.507-5.048-20.442-8.031-2.579.083-7.038-.214-10.424-3.062C433.691,87.941,432.243,84.393,432.243,79.827Z" transform="translate(-429.737 -15.237)" fill="#3d6666"/>
</svg>
